<svg width="30" height="28" viewBox="0 0 30 28" fill="none" xmlns="http://www.w3.org/2000/svg">
<path d="M22.2579 16.8937H7.59448V17.8622H22.2579V16.8937Z" fill="black"/>
<path d="M20.3268 20.2834H9.53149V21.2519H20.3268V20.2834Z" fill="black"/>
<path d="M15.4843 23.6673H14.5157V24.6358H15.4843V23.6673Z" fill="black"/>
<path d="M17.4213 23.6673H16.4528V24.6358H17.4213V23.6673Z" fill="black"/>
<path d="M13.5472 23.6673H12.5787V24.6358H13.5472V23.6673Z" fill="black"/>
<path d="M28.063 11.0886H18.7028L26.0433 3.74802C26.7992 2.99211 26.7992 1.76377 26.0433 1.00786C25.311 0.275578 24.0354 0.275578 23.3091 1.00786L14.1142 10.2027C13.8602 10.4567 13.7008 10.7638 13.6181 11.0886H1.93701C0.86811 11.0886 0 11.9567 0 13.0256C0 13.9764 0.685039 14.7618 1.58858 14.9272L6.44291 27.5413H23.5571L28.4114 14.9272C29.315 14.7618 30 13.9705 30 13.0256C30 11.9567 29.1319 11.0886 28.063 11.0886ZM14.7992 10.8878L23.9941 1.6929C24.1772 1.50983 24.4193 1.40944 24.6791 1.40944C24.939 1.40944 25.1811 1.50983 25.3642 1.6929C25.7421 2.07085 25.7421 2.68503 25.3642 3.06298L17.3386 11.0886L16.1693 12.2579C15.7913 12.6358 15.1772 12.6358 14.7992 12.2579C14.752 12.2106 14.7106 12.1575 14.6752 12.1043C14.6693 12.0984 14.6634 12.0866 14.6634 12.0748C14.6339 12.0275 14.6102 11.9803 14.5866 11.9331V11.9272C14.4449 11.5787 14.5157 11.1712 14.7992 10.8878ZM22.8957 26.5728H7.10433L2.63976 14.9567H27.3602L22.8957 26.5728Z" fill="black"/>
</svg>
